<?xml version="1.0" encoding="UTF-8"?>
<!-- Created with Inkscape (http://www.inkscape.org/) -->
<svg width="347.39" height="101.28" version="1.1" viewBox="0 0 347.39 101.28" xmlns="http://www.w3.org/2000/svg">
 <g transform="matrix(1.3333 0 0 -1.3333 0 101.28)">
  <g transform="scale(.1)" fill="#4fb9cc">
   <path d="m586.06 452.06h-89.727l-30.84 79.609h120.57v13.254c0 129.88 33.511 214.73 179.11 214.73 25.141 0 46.105-8.286 66-11.418l-4.199-74.473c-11.524 4.199-30.371 6.281-47.121 6.281-84.852 0-95.332-54.469-95.332-126.75v-21.621h131.13l-41.118-79.609h-90.011v-449.48h-98.461v449.48"/>
   <path d="m1881.4 633.71 98.48 35.98v-141.06h141.4l-25.71-79.61h-115.69v-242.66c0-72.281 10.48-126.75 95.31-126.75 16.75 0 35.61 2.0937 47.12 6.2812l4.22-79.605c-19.9-3.125-40.87-6.2891-66.01-6.2891-145.6 0-179.12 84.856-179.12 214.74v234.28h-125.71l20.57 79.61h105.14v105.08"/>
   <path d="m1229.1 37.148c-37.71-13.633-80.65-34.578-168.66-34.578-189.6 0-276.53 115.23-276.53 289.1 0 158.18 99.508 270.28 250.34 270.28 178.07 0 235.71-129.91 235.71-301.7h-381.3c0-105.79 82.762-178.07 175.97-178.07 64.95 0 140.37 33.539 164.47 53.429zm-63.91 296.42c0 81.727-48.16 148.77-133.02 148.77-96.374 0-136.18-79.61-143.51-148.77h276.53"/>
   <path d="m445.19 37.148c-37.711-13.633-80.648-34.578-168.66-34.578-189.59 0-276.53 115.23-276.53 289.1 0 158.18 99.512 270.28 250.35 270.28 178.07 0 235.7-129.91 235.7-301.7h-381.3c0-105.79 82.762-178.07 175.98-178.07 64.95 0 140.37 33.539 164.46 53.429zm-63.914 296.42c0 81.727-48.156 148.77-133.01 148.77-96.379 0-136.19-79.61-143.52-148.77h276.53"/>
   <path d="m1706.4 459.28c-37.7 15.703-83.8 23.055-115.21 23.055-109.99 0-171.8-98.461-171.8-200.08 0-95.332 51.33-200.09 178.07-200.09 33.5 0 82.74 10.496 113.12 30.383v-87.965c-40.84-18.887-87.98-22.012-123.59-22.012-161.31 0-272.35 126.75-272.35 279.68 0 162.35 108.93 279.69 272.35 279.69 39.81 0 116.82-14.582 145.11-26.101l-25.7-76.563"/>
   <path d="m2564.6 37.148c-37.7-13.633-80.65-34.578-168.66-34.578-189.59 0-276.53 115.23-276.53 289.1 0 158.18 99.51 270.28 250.35 270.28 178.07 0 235.7-129.91 235.7-301.7h-381.3c0-105.79 82.76-178.07 175.98-178.07 64.96 0 140.35 33.539 164.46 53.429zm-63.91 296.42c0 81.727-48.16 148.77-133.01 148.77-96.39 0-136.19-79.61-143.52-148.77h276.53"/>
  </g>
 </g>
</svg>
