<?xml version="1.0" encoding="UTF-8"?>
<!-- Created with Inkscape (http://www.inkscape.org/) -->
<svg width="583.7" height="203.52" version="1.1" viewBox="0 0 583.7 203.52" xmlns="http://www.w3.org/2000/svg">
 <defs>
  <clipPath id="clipPath783">
   <path d="M 0,841.89 H 595.276 V 0 H 0 Z"/>
  </clipPath>
 </defs>
 <g transform="matrix(1.3333 0 0 -1.3333 0 1122.5)">
  <g transform="translate(-82.997 344.62)">
   <g clip-path="url(#clipPath783)">
    <g transform="translate(195.39 424.1)">
     <path d="m0 0c-8.992 0-17.857 0.02-26.722-7e-3 -5.614-0.018-11.228-0.12-16.842-0.159-2.505-0.017-4.919-0.434-7.216-1.449-4.34-1.917-6.445-5.379-6.017-9.881 0.326-3.437 3.053-6.178 7.641-6.925 5.431-0.884 10.936-1.3 16.399-2.005 12.279-1.583 20.119-8.536 21.993-19.428 2.288-13.296-2.373-23.136-13.748-28.983-6.321-3.249-13.112-4.607-20.152-4.706-7.539-0.106-15.082-0.04-22.623-0.018-5.781 0.017-9.744 3.547-9.628 8.517 0.121 5.191 4.347 8.604 10.174 8.397 8.876-0.314 17.759-0.675 26.622 0.273 2.596 0.278 5.042 1.083 7.271 2.466 3.766 2.336 5.442 6.164 4.517 10.391-0.894 4.08-4.062 5.466-7.649 6.044-4.882 0.787-9.798 1.373-14.709 1.965-14.459 1.746-23.429 10.371-24.094 23.222-0.718 13.859 7.452 24.221 21.703 27.48 3.627 0.829 7.326 1.277 11.037 1.282 30.052 0.04 60.104 0.024 90.156 0.019 0.334 0 0.667-0.064 1.183-0.117v-16.344h-31.028v-6.284c0-10.13 0.022-20.26-0.015-30.389-0.01-2.602 0.227-5.162 0.712-7.711 1.38-7.263 5.045-12.378 12.745-13.879 3.898-0.761 7.005-2.584 7.566-6.985 0.751-5.884-3.645-10.096-10.022-9.682-14.452 0.938-24.927 10.329-27.84 24.921-0.773 3.875-1.124 7.781-1.125 11.728-4e-3 12.38-0.019 24.761-0.038 37.141 0 0.215-0.093 0.429-0.251 1.106" fill="#fff"/>
    </g>
    <g transform="translate(364.79 474.55)">
     <path d="m0 0c-0.936-1.535-2.457-1.091-3.817-1.091-28.238-0.011-56.476-8e-3 -84.713-8e-3 -59.626 0-119.25-2e-3 -178.88 3e-3 -5.983 0-9.454 2.322-10.788 7.163-1.496 5.425 2.077 10.917 7.632 11.662 1.108 0.149 2.244 0.109 3.367 0.109 84.601 4e-3 169.2 1e-3 253.8 0.013 3.594 0 7.188 0.169 10.783 0.176 0.657 1e-3 1.612 0.559 1.986-0.58l-7e-3 -0.282c-3.788-5.154-4.306-10.84-1.295-15.701 0.399-0.644 0.451-2.146 1.958-1.553z" fill="#fff"/>
    </g>
    <g transform="translate(298.59 404.45)">
     <path d="m0 0c0.118 13.021-8.083 20.972-20.453 20.119-9.641-0.665-17.188-10.231-15.802-20.119zm18.1-14.659h-54.337c-1.71-11.804 7.612-22.41 19.651-22.554 8.774-0.105 17.55 1e-3 26.326-0.028 5.634-0.019 9.377-3.364 9.421-8.327 0.043-5.025-3.601-8.317-9.342-8.339-8.55-0.032-17.101-0.033-25.651-2e-3 -19.024 0.069-32.498 10.305-36.782 28.825-3.496 15.114-3.382 30.263 4.057 44.392 6.7 12.727 17.914 18.216 32.014 17.698 13.819-0.509 23.804-7.268 29.784-19.735 4.813-10.036 5.142-20.786 4.859-31.93" fill="#fff"/>
    </g>
    <g transform="translate(369.35 397.84)">
     <path d="m0 0c16.863-5.042 32.012-27.236 32.438-47.519-5.939 0-11.878 0.027-17.816-0.017-1.869-0.014-1.757 1.524-2.081 2.57-1.863 6.029-4.104 11.9-7.106 17.457-6.662 12.336-16.626 18.514-29.301 18.129-0.674-2.044-0.303-4.187-0.302-6.283 3e-3 -7.534 0.077-15.069 0.177-22.603 0.077-5.771-3.39-9.882-8.555-10.034-5.481-0.161-9.228 3.738-9.231 9.718-0.016 26.101-8e-3 52.202-2e-3 78.303 0 0.884 0.076 1.769 0.126 2.845h17.833v-34.699c17.242 2.423 31.251 16.94 33.643 34.708h18.987c1.168-16.757-8.692-31.399-28.81-42.575" fill="#fff"/>
    </g>
    <g transform="translate(411.77 440.43)">
     <path d="m0 0h17.306v-34.712c16.622 1.511 32.041 17.398 33.836 34.706h19.391c-1.59-19.848-9.99-34.764-29.508-42.533 11.065-2.961 17.992-10.032 23.239-19.043 5.078-8.723 7.976-18.21 9.778-28.336h-19.358c-1.187 3.362-2.37 6.938-3.709 10.455-2.49 6.543-5.595 12.741-10.354 17.997-6.214 6.864-14.15 9.433-23.253 9.594 0-10.145 0.079-20.135-0.028-30.123-0.071-6.677-6.647-10.89-12.557-8.132-3.071 1.433-5.108 3.922-5.115 7.354-0.06 27.338-9e-3 54.677 0.019 82.015 0 0.197 0.158 0.394 0.313 0.758" fill="#fff"/>
    </g>
    <g transform="translate(88.824 440.48)">
     <path d="m0 0h17.522c0.771-0.766 0.511-1.599 0.511-2.349 0.015-26.336 2e-3 -52.672 0.024-79.008 3e-3 -3.96-1.499-7.061-5.108-8.772-3.453-1.637-6.846-1.108-9.774 1.336-2.863 2.39-3.184 5.758-3.182 9.212 0.013 22.397 7e-3 44.794 7e-3 67.191v12.39" fill="#fff"/>
    </g>
    <g transform="translate(497.83 440.41)">
     <path d="m0 0h17.658c0.069-0.94 0.173-1.706 0.173-2.472 8e-3 -26.087 9e-3 -52.174 2e-3 -78.261 0-1.57-0.039-3.133-0.661-4.63-1.601-3.855-5.624-6.112-9.821-5.467-4.093 0.629-7.245 4.123-7.324 8.414-0.102 5.508-0.027 11.019-0.027 16.529v62.069 3.818" fill="#fff"/>
    </g>
    <g transform="translate(488.55 492.66)">
     <path d="m0 0c6.175-0.609 12.365-0.152 18.548-0.257 6.278-0.105 10.4-3.783 10.424-9.434 0.023-5.534-4.269-9.494-10.368-9.521-5.29-0.024-10.581-0.037-15.87 0.024-0.924 0.01-2.043-0.546-2.78 0.553 0-1e-3 -0.045 0.059-0.045 0.059 3.82 4.766 4.323 9.877 1.662 15.357-0.522 1.074-1.749 1.808-1.571 3.219" fill="#fff"/>
    </g>
    <g transform="translate(488.46 474.08)">
     <path d="m0 0s0.045-0.06 0.045-0.059c-3.218-0.869-6.487-0.553-10.233-0.62 4.406 6.34 4.766 12.484-0.125 19.024 3.471-0.243 6.311 0.562 9.113-0.553 2.706-5.185 3.318-10.484 0.917-15.969-0.27-0.617-0.992-1.403 0.283-1.823" fill="#fff"/>
    </g>
    <g transform="translate(364.15 491.71)">
     <path d="m0 0 7e-3 0.282c1.436-1.851 2.121 0.973 3.645 0.552 1.944-0.537 4.149-0.13 6.736-0.13-4.31-6.279-4.622-12.41 0.053-18.852-3.606 0.018-6.81-0.977-9.81 0.983 0 0 0.032-0.09 0.032-0.089 0.082 0.075 0.249 0.177 0.235 0.221-1.704 5.39-2.446 10.749 0.167 16.115 0.404 0.829-0.233 1.154-1.065 0.918" fill="#fff"/>
    </g>
    <g transform="translate(383.69 492.39)">
     <path d="m0 0c-4.422-6.312-4.701-12.362-0.28-18.365-5.557-1.807-7.622-0.744-8.964 4.661-0.43 1.73-0.649 3.497-0.479 5.316 0.702 7.526 1.694 8.463 9.723 8.388" fill="#fff"/>
    </g>
    <g transform="translate(468.93 473.25)">
     <path d="m0 0c4.936 6.745 4.801 12.77 0.135 19.267 3.017-0.646 6.056 1.437 7.772-1.509 3.04-5.219 2.98-10.762 0.075-16.037-1.701-3.087-4.762-0.98-7.982-1.721" fill="#fff"/>
    </g>
    <g transform="translate(392.31 492.33)">
     <path d="m0 0c-4.352-6.284-4.601-12.33-0.228-18.327-4.408-1.298-5.432-0.849-6.826 3.08-1.192 3.36-1.393 6.775-0.428 10.25 1.398 5.033 1.559 5.173 7.482 4.997" fill="#fff"/>
    </g>
    <g transform="translate(460.47 492.32)">
     <path d="m0 0c5.88 0.207 6.546-0.336 7.732-5.445 0.677-2.913 0.588-5.787-0.175-8.641-1.264-4.73-1.964-5.156-7.371-4.519 4.38 6.096 4.604 12.212-0.186 18.605" fill="#fff"/>
    </g>
    <g transform="translate(401.41 492.28)">
     <path d="m0 0c-4.429-6.248-4.637-12.267-0.231-18.248-3.052-1.027-3.477-0.92-4.624 1.65-2.065 4.629-2.193 9.327-0.197 14.019 1.186 2.789 1.221 2.774 5.052 2.579" fill="#fff"/>
    </g>
    <g transform="translate(451.48 492.23)">
     <path d="m0 0c4.246 0.338 6.349-2.639 6.526-8.792 0.18-6.28-2.084-10.048-6.417-9.876 4.279 6.278 4.539 12.52-0.109 18.668" fill="#fff"/>
    </g>
    <g transform="translate(412.81 492.54)">
     <path d="m0 0c-4.709-6.519-4.684-12.649-0.339-18.792-2.509-0.045-4.008 2.156-4.562 6.37-0.822 6.254 0.976 11.469 4.901 12.422" fill="#fff"/>
    </g>
    <g transform="translate(439.95 492.63)">
     <path d="m0 0c3.724-1.068 5.46-5.129 5.253-10.582-0.178-4.695-1.889-7.955-5.005-8.613 4.569 6.358 4.781 12.565-0.248 19.195" fill="#fff"/>
    </g>
   </g>
  </g>
 </g>
</svg>
