<?xml version="1.0" encoding="UTF-8" standalone="no"?>
<!-- Created with Inkscape (http://www.inkscape.org/) -->

<svg
   version="1.1"
   id="svg2"
   width="2301.6667"
   height="765.87866"
   viewBox="0 0 2301.6667 765.87866"
   sodipodi:docname="talentree.svg"
   inkscape:version="1.2.1 (9c6d41e410, 2022-07-14)"
   xmlns:inkscape="http://www.inkscape.org/namespaces/inkscape"
   xmlns:sodipodi="http://sodipodi.sourceforge.net/DTD/sodipodi-0.dtd"
   xmlns="http://www.w3.org/2000/svg"
   xmlns:svg="http://www.w3.org/2000/svg">
  <defs
     id="defs6">
    <clipPath
       clipPathUnits="userSpaceOnUse"
       id="clipPath18">
      <path
         d="M 0,574.409 H 1726.252 V 0 H 0 Z"
         id="path16" />
    </clipPath>
  </defs>
  <sodipodi:namedview
     id="namedview4"
     pagecolor="#000000"
     bordercolor="#000000"
     borderopacity="0.25"
     inkscape:showpageshadow="2"
     inkscape:pageopacity="0"
     inkscape:pagecheckerboard="0"
     inkscape:deskcolor="#d1d1d1"
     showgrid="false"
     inkscape:zoom="0.31281678"
     inkscape:cx="1325.0568"
     inkscape:cy="493.89933"
     inkscape:window-width="1634"
     inkscape:window-height="1288"
     inkscape:window-x="26"
     inkscape:window-y="23"
     inkscape:window-maximized="0"
     inkscape:current-layer="g10">
    <inkscape:page
       x="0"
       y="0"
       id="page8"
       width="2301.6667"
       height="765.87866" />
  </sodipodi:namedview>
  <g
     id="g10"
     inkscape:groupmode="layer"
     inkscape:label="Page 1"
     transform="matrix(1.3333333,0,0,-1.3333333,0,765.87867)">
    <g
       id="g12">
      <g
         id="g14"
         clip-path="url(#clipPath18)">
        <g
           id="g20"
           transform="translate(945.8803,410.9673)">
          <path
             d="m 0,0 c 0,0.312 0.255,0.567 0.567,0.567 l 7.382,0.01 c 0.312,0 0.567,-0.255 0.567,-0.566 v -46.929 c 0,-0.312 0.18,-0.387 0.401,-0.166 l 18.521,18.515 c 0.221,0.22 0.402,0.655 0.402,0.967 l 0.011,41.669 c 0,0.312 0.254,0.566 0.566,0.566 l 7.382,-0.009 c 0.311,0 0.566,-0.256 0.566,-0.567 l -0.009,-33.144 c 0,-0.312 0.181,-0.386 0.401,-0.166 l 15.408,15.417 c 0.22,0.22 0.4,0.656 0.4,0.968 l 0.018,30.878 c 0,0.312 0.255,0.567 0.567,0.566 l 7.371,-0.017 c 0.313,-0.001 0.568,-0.257 0.568,-0.568 V 5.656 c 0,-0.312 0.181,-0.387 0.4,-0.166 l 53.482,53.481 c 0.22,0.22 0.22,0.581 0,0.802 l -9.753,9.751 c -0.22,0.221 -0.628,0.286 -0.906,0.145 L -17.108,8.064 c -0.279,-0.141 -0.508,-0.511 -0.511,-0.823 l -0.728,-81.044 c -0.003,-0.312 0.176,-0.387 0.396,-0.166 l 17.56,17.56 c 0.22,0.221 0.401,0.656 0.401,0.968 z"
             style="fill:#ffffff;fill-opacity:1;fill-rule:nonzero;stroke:none"
             id="path22" />
        </g>
        <g
           id="g24"
           transform="translate(1006.1098,350.7295)">
          <path
             d="m 0,0 c 0.312,0 0.566,0.255 0.567,0.567 l 0.009,7.39 C 0.577,8.269 0.322,8.524 0.01,8.524 h -46.938 c -0.311,0 -0.385,0.18 -0.166,0.401 l 18.525,18.532 c 0.219,0.22 0.655,0.401 0.966,0.401 l 41.662,0.009 c 0.311,0 0.566,0.255 0.565,0.567 l -0.009,7.372 c -10e-4,0.312 -0.256,0.567 -0.568,0.567 l -33.134,-0.009 c -0.312,0 -0.387,0.18 -0.166,0.401 l 15.417,15.417 c 0.22,0.22 0.655,0.401 0.968,0.401 l 30.878,0.009 c 0.312,0 0.566,0.255 0.566,0.567 l -0.017,7.372 c 0,0.311 -0.256,0.567 -0.568,0.567 H 5.646 c -0.312,0 -0.386,0.18 -0.166,0.401 l 53.491,53.49 c 0.22,0.22 0.582,0.22 0.802,0 l 9.753,-9.762 c 0.22,-0.22 0.286,-0.628 0.144,-0.906 L 8.056,-17.12 c -0.142,-0.277 -0.512,-0.507 -0.824,-0.51 l -81.018,-0.726 c -0.312,-0.003 -0.386,0.175 -0.166,0.396 L -56.4,-0.392 c 0.219,0.221 0.655,0.401 0.967,0.401 z"
             style="fill:#ffffff;fill-opacity:1;fill-rule:nonzero;stroke:none"
             id="path26" />
        </g>
        <g
           id="g28"
           transform="translate(830.2455,475.0498)">
          <path
             d="m 0,0 c 0,0.312 -0.255,0.567 -0.567,0.568 l -11.007,0.016 c -0.311,0 -0.567,-0.254 -0.567,-0.566 V -67.32 c 0,-0.312 -0.18,-0.387 -0.401,-0.166 l -26.726,26.717 c -0.221,0.221 -0.401,0.656 -0.401,0.968 l -0.019,59.823 c 0,0.312 -0.255,0.567 -0.567,0.566 l -10.988,-0.007 c -0.312,-0.001 -0.567,-0.256 -0.567,-0.568 l 0.02,-47.693 c 0,-0.312 -0.18,-0.386 -0.401,-0.166 L -74.48,-5.537 c -0.221,0.22 -0.401,0.656 -0.401,0.968 l -0.038,44.464 c 0,0.312 -0.256,0.566 -0.568,0.566 l -10.968,-0.018 c -0.312,0 -0.566,-0.256 -0.566,-0.568 V 7.562 c 0,-0.312 -0.181,-0.386 -0.401,-0.166 l -76.516,76.525 c -0.221,0.221 -0.221,0.582 0,0.802 l 14.227,14.235 c 0.22,0.221 0.628,0.286 0.906,0.145 L 24.605,11.131 c 0.279,-0.141 0.508,-0.511 0.511,-0.823 l 1.03,-115.927 c 0.002,-0.312 -0.176,-0.386 -0.396,-0.166 L 0.401,-80.428 C 0.18,-80.208 0,-79.772 0,-79.46 Z"
             style="fill:#ffffff;fill-opacity:1;fill-rule:nonzero;stroke:none"
             id="path30" />
        </g>
        <g
           id="g32"
           transform="translate(744.206,389)">
          <path
             d="m 0,0 c -0.312,0 -0.567,0.255 -0.568,0.567 l -0.017,11.016 c -0.001,0.312 0.253,0.567 0.565,0.567 h 67.33 c 0.312,0 0.386,0.18 0.166,0.401 L 40.768,39.278 c -0.221,0.22 -0.657,0.401 -0.968,0.401 l -59.832,0.009 c -0.312,0 -0.567,0.255 -0.566,0.567 l 0.017,10.996 c 0.001,0.312 0.257,0.567 0.568,0.567 L 27.679,51.8 c 0.311,0 0.386,0.18 0.166,0.401 L 5.535,74.49 c -0.22,0.221 -0.656,0.401 -0.968,0.402 l -44.463,0.027 c -0.312,0 -0.566,0.255 -0.565,0.567 l 0.017,10.979 c 0.001,0.311 0.256,0.567 0.568,0.567 h 32.303 c 0.312,0 0.386,0.18 0.166,0.401 l -76.514,76.524 c -0.221,0.221 -0.581,0.221 -0.802,0 L -98.969,149.72 c -0.22,-0.221 -0.285,-0.628 -0.144,-0.906 l 87.981,-173.42 c 0.141,-0.278 0.512,-0.508 0.823,-0.51 l 115.908,-1.028 c 0.312,-0.002 0.386,0.175 0.166,0.396 L 80.418,-0.392 c -0.221,0.221 -0.656,0.401 -0.968,0.401 z"
             style="fill:#ffffff;fill-opacity:1;fill-rule:nonzero;stroke:none"
             id="path34" />
        </g>
        <g
           id="g36"
           transform="translate(846.5859,239.7007)">
          <path
             d="m 0,0 c -30.823,0 -65.327,-19.325 -65.327,-19.325 v 14.264 h -39.111 v -229.58 h 39.111 v 183.578 c 0,0 30.823,15.633 58.888,15.633 38.188,0 44.627,-28.057 44.627,-80.055 v -119.156 h 38.647 v 119.628 C 76.835,-37.724 61.183,0 0,0 m 238.608,-204.581 c -3.081,11.95 -13.128,31.589 -34.979,63.57 -0.857,1.049 -1.732,2.121 -2.614,3.202 v 98.244 h 66.706 V -5.061 H 201.015 V 64.87 H 162.367 V -5.061 h -30.814 v -34.504 h 30.814 V -88.323 C 96.209,1.143 18.615,136.762 89.684,239.455 c -6.116,5.107 -7.825,6.821 -15.529,9.388 -76.72,-97.336 -22.406,-246.911 114.838,-444.996 -0.407,-0.144 -1.159,0.036 -2.262,0.633 l -22.656,12.255 c 5.447,-40.538 24.639,-56.436 63.166,-56.436 16.105,0 43.246,5.06 43.246,5.06 l -1.842,32.211 c 0,0 -16.987,-1.637 -30.037,-2.151 m 122.997,199.52 h -38.647 v -229.58 h 38.647 v 165.17 c 0,0 32.665,20.24 74.069,28.528 V 0 c -40.943,-8.279 -74.069,-33.58 -74.069,-33.58 z m -658.827,-100.293 c 0.463,49.231 20.703,72.228 56.123,72.228 35.893,0 52.451,-22.082 52.451,-72.228 z M -241.099,0 c -59.804,0 -95.234,-40.49 -95.234,-121.46 0,-74.069 24.395,-118.241 92.94,-118.241 40.029,0 85.578,8.743 85.578,8.743 l -0.925,29.907 c 0,0 -49.223,-4.136 -81.887,-4.136 -42.329,0 -56.132,29.898 -56.132,69.463 h 144.919 l 2.305,28.981 C -149.535,-35.883 -181.284,0 -241.099,0 m -387.877,85.114 h -217.61 V 46.466 h 89.712 v -281.107 h 39.564 V 46.466 h 88.334 z M 731.98,-105.354 c 0.454,49.231 20.694,72.228 56.125,72.228 35.882,0 52.45,-22.082 52.45,-72.228 z m 147.687,-1.389 C 879.667,-35.883 847.909,0 788.105,0 c -59.806,0 -95.236,-40.49 -95.236,-121.46 0,-74.069 24.384,-118.241 92.942,-118.241 40.026,0 85.567,8.743 85.567,8.743 l -0.924,29.907 c 0,0 -49.223,-4.136 -81.886,-4.136 -42.333,0 -56.134,29.898 -56.134,69.463 H 877.363 Z M -417.86,-234.641 h 38.649 V 94.315 h -38.649 z m 921.213,129.287 c 0.452,49.231 20.692,72.228 56.123,72.228 35.884,0 52.451,-22.082 52.451,-72.228 z M 559.476,0 c -59.804,0 -95.234,-40.49 -95.234,-121.46 0,-74.069 24.385,-118.241 92.94,-118.241 40.028,0 85.569,8.743 85.569,8.743 l -0.924,29.907 c 0,0 -49.223,-4.136 -81.888,-4.136 -42.331,0 -56.134,29.898 -56.134,69.463 h 144.931 l 2.304,28.981 C 651.04,-35.883 619.282,0 559.476,0 M -520.883,-193.689 c 0,0 -32.201,-12.875 -64.412,-12.875 -18.861,0 -31.738,16.558 -31.738,39.101 0,21.617 11.035,37.723 36.346,39.563 l 59.804,4.6 z m 38.64,9.668 v 108.564 c 0,52.913 -24.838,75.457 -72.692,75.457 -35.419,0 -90.166,-9.2 -90.166,-9.2 l 1.379,-32.668 c 0,0 48.307,5.985 86.955,5.985 23.46,0 35.884,-12.424 35.884,-39.102 v -18.41 l -63.949,-5.984 c -45.088,-3.682 -71.775,-24.838 -71.775,-69.01 0,-42.783 28.065,-71.312 66.714,-71.312 39.565,0 75.457,17.947 75.457,17.947 12.877,-11.961 28.057,-17.484 56.125,-17.484 l 2.292,33.125 c -14.254,2.306 -22.542,6.902 -26.224,22.092"
             style="fill:#ffffff;fill-opacity:1;fill-rule:nonzero;stroke:none"
             id="path38" />
        </g>
      </g>
    </g>
  </g>
</svg>
